<?xml version="1.0" encoding="utf-8"?>
<COLLADA xmlns="http://www.collada.org/2005/11/COLLADASchema" version="1.4.1">
  <asset>
    <contributor>
      <author></author>
      <authoring_tool>FBX COLLADA exporter</authoring_tool>
      <comments></comments>
    </contributor>
    <created>2012-06-08T02:39:22Z</created>
    <keywords></keywords>
    <modified>2012-06-08T02:39:22Z</modified>
    <revision></revision>
    <subject></subject>
    <title></title>
    <unit meter="0.010000" name="centimeter"></unit>
    <up_axis>Y_UP</up_axis>
  </asset>
  <library_materials>
    <material id="lambert1" name="lambert1">
      <instance_effect url="#lambert1-fx"/>
    </material>
  </library_materials>
  <library_effects>
    <effect id="lambert1-fx" name="lambert1">
      <profile_COMMON>
        <technique sid="standard">
          <lambert>
            <emission>
              <color sid="emission">0.000000  0.000000 0.000000 1.000000</color>
            </emission>
            <ambient>
              <color sid="ambient">0.000000  0.000000 0.000000 1.000000</color>
            </ambient>
            <diffuse>
              <color sid="diffuse">0.400000  0.400000 0.400000 1.000000</color>
            </diffuse>
            <transparent opaque="RGB_ZERO">
              <color sid="transparent">0.000000  0.000000 0.000000 1.000000</color>
            </transparent>
            <transparency>
              <float sid="transparency">1.000000</float>
            </transparency>
          </lambert>
        </technique>
      </profile_COMMON>
    </effect>
  </library_effects>
  <library_geometries>
    <geometry id="polySurface1-lib" name="polySurface1Mesh">
      <mesh>
        <source id="polySurface1-POSITION">
          <float_array id="polySurface1-POSITION-array" count="378">
-16.594103 -16.594103 35.919220
-13.765266 -16.594103 35.919220
-16.594103 -5.531369 35.919220
-13.765266 -5.531369 35.919220
-16.594103 2.734782 32.430958
-13.765266 4.034324 35.919212
-16.594103 13.797513 13.105833
-13.765266 16.594103 16.594097
-16.594103 16.594109 5.531373
-13.765266 16.594109 5.531373
-16.594103 16.594103 -5.531367
-13.765266 16.594103 -5.531367
-16.594103 16.594103 -16.594103
-13.765266 16.594103 -16.594103
-16.594103 5.531369 -16.594103
-13.765266 5.531369 -16.594103
-16.594103 -5.531372 -16.594103
-16.594103 -16.594103 -16.594103
-13.765266 -16.594103 -16.594103
-16.594103 -16.594103 -5.531367
-13.765266 -16.594103 -5.531367
-16.517454 -16.594109 5.531374
-13.765266 -16.594109 5.531374
-16.594103 -5.531369 -5.531367
-16.594103 -5.531368 5.531374
-16.594103 5.531372 -5.531367
-16.594103 5.531368 5.531374
-16.594103 5.531369 -55.692818
-13.765266 5.531369 -55.692818
-13.765266 -5.531372 -55.692818
-16.594103 -5.531372 -55.692818
-13.765266 -16.594103 -55.692818
-16.594103 -16.594103 -55.692818
0.000000 -5.531369 35.919220
0.000000 4.034324 35.919212
0.000000 16.594103 16.594097
0.000000 16.594109 5.531373
0.000000 16.594103 -5.531367
0.000000 16.594103 -16.594103
0.000000 5.531369 -16.594103
0.000000 5.531369 -55.692818
0.000000 -5.531372 -55.692818
0.000000 -16.594103 -55.692818
0.000000 -16.594103 -16.594103
0.000000 -16.594103 -5.531367
0.000000 -16.594109 5.531374
0.000000 -16.594103 35.919220
-24.453968 -16.842432 -14.275738
-24.453968 -16.842432 -5.531366
-24.453968 -9.311686 -5.531366
-24.453968 -9.311687 -14.275738
-24.453968 -16.842436 3.213008
-24.453968 -9.311686 3.213008
0.000000 14.318471 20.666908
-13.765266 14.318471 20.666908
-16.594103 10.444877 18.962442
-16.594103 13.241469 5.531373
-16.594103 13.241467 -5.531367
-16.594103 13.241466 -16.594103
-13.765266 13.241466 -16.594103
0.000000 13.241466 -16.594103
0.000000 6.717854 33.909927
-13.765266 6.717854 33.909927
-16.594105 5.012980 28.451248
-16.594105 7.809567 5.531374
-16.594105 7.809569 -5.531367
-16.594103 7.809566 -16.594103
-13.765266 7.809566 -16.594103
0.000000 7.809566 -16.594103
0.000000 5.541412 33.723305
-13.765266 5.541412 33.723305
0.000000 13.142029 20.480284
-13.765266 13.142029 20.480284
16.594103 -16.594103 35.919220
13.765266 -16.594103 35.919220
16.594103 -5.531369 35.919220
13.765266 -5.531369 35.919220
16.594103 2.734782 32.430958
13.765266 4.034324 35.919212
16.594103 13.797513 13.105833
13.765266 16.594103 16.594097
16.594103 16.594109 5.531373
13.765266 16.594109 5.531373
16.594103 16.594103 -5.531367
13.765266 16.594103 -5.531367
16.594103 16.594103 -16.594103
13.765266 16.594103 -16.594103
16.594103 5.531369 -16.594103
13.765266 5.531369 -16.594103
16.594103 -5.531372 -16.594103
16.594103 -16.594103 -16.594103
13.765266 -16.594103 -16.594103
16.594103 -16.594103 -5.531367
13.765266 -16.594103 -5.531367
16.517454 -16.594109 5.531374
13.765266 -16.594109 5.531374
16.594103 -5.531369 -5.531367
16.594103 -5.531368 5.531374
16.594103 5.531372 -5.531367
16.594103 5.531368 5.531374
16.594103 5.531369 -55.692818
13.765266 5.531369 -55.692818
13.765266 -5.531372 -55.692818
16.594103 -5.531372 -55.692818
13.765266 -16.594103 -55.692818
16.594103 -16.594103 -55.692818
24.453968 -16.842432 -14.275738
24.453968 -16.842432 -5.531366
24.453968 -9.311686 -5.531366
24.453968 -9.311687 -14.275738
24.453968 -16.842436 3.213008
24.453968 -9.311686 3.213008
13.765266 14.318471 20.666908
16.594103 10.444877 18.962442
16.594103 13.241469 5.531373
16.594103 13.241467 -5.531367
16.594103 13.241466 -16.594103
13.765266 13.241466 -16.594103
13.765266 6.717854 33.909927
16.594105 5.012980 28.451248
16.594105 7.809567 5.531374
16.594105 7.809569 -5.531367
16.594103 7.809566 -16.594103
13.765266 7.809566 -16.594103
13.765266 5.541412 33.723305
13.765266 13.142029 20.480284
</float_array>
          <technique_common>
            <accessor source="#polySurface1-POSITION-array" count="126" stride="3">
              <param name="X" type="float"/>
              <param name="Y" type="float"/>
              <param name="Z" type="float"/>
            </accessor>
          </technique_common>
        </source>
        <source id="polySurface1-Normal0">
          <float_array id="polySurface1-Normal0-array" count="2232">
0.000000 0.000000 1.000000
0.000000 0.000000 1.000000
0.000000 0.131925 0.991260
0.000000 0.131925 0.991260
0.000000 0.000000 1.000000
-0.138234 0.069196 0.987979
0.000000 0.000000 1.000000
0.000000 0.000000 1.000000
-0.138234 0.069196 0.987979
-0.138234 0.069196 0.987979
0.000000 0.000000 1.000000
0.000000 0.000001 1.000000
0.000000 0.131925 0.991260
-0.138234 0.069196 0.987979
-0.671181 0.350117 0.653401
-0.671181 0.350117 0.653401
-0.138234 0.069196 0.987979
-0.359884 0.224042 0.905698
-0.138234 0.069196 0.987979
0.000000 0.000001 1.000000
-0.359884 0.224042 0.905698
-0.359884 0.224042 0.905698
0.000000 0.000001 1.000000
0.000000 0.418561 0.908189
-0.359884 0.224042 0.905698
-0.553476 0.575981 0.601590
-0.671181 0.350117 0.653401
-0.671181 0.350117 0.653401
-0.553476 0.575981 0.601590
-0.829328 0.484825 0.277779
-0.359884 0.224042 0.905698
0.000000 0.418561 0.908189
-0.553476 0.575981 0.601590
-0.553476 0.575981 0.601590
0.000000 0.418561 0.908189
0.000000 0.599358 0.800481
-0.380034 0.924972 0.000000
-0.105006 0.993125 0.051732
-0.385019 0.903206 0.189683
-0.385019 0.903206 0.189683
-0.105006 0.993125 0.051732
0.000000 0.984404 0.175924
-0.380034 0.924972 0.000000
0.000000 1.000000 0.000001
-0.105006 0.993125 0.051732
-0.105006 0.993125 0.051732
0.000000 1.000000 0.000001
0.000000 1.000000 -0.000000
0.000000 0.984404 0.175924
-0.105006 0.993125 0.051732
0.000000 1.000000 -0.000000
0.000000 1.000000 -0.000000
-0.105006 0.993125 0.051732
0.000000 1.000000 -0.000000
-0.105006 0.993125 0.051732
0.000000 1.000000 -0.000000
0.000000 1.000000 -0.000000
0.000000 1.000000 -0.000000
0.000000 1.000000 -0.000000
0.000000 1.000000 -0.000000
0.000000 1.000000 -0.000000
0.000000 1.000000 -0.000000
0.000000 1.000000 0.000000
0.000000 1.000000 0.000000
0.000000 1.000000 -0.000000
0.000000 1.000000 0.000000
0.000000 1.000000 -0.000000
0.000000 1.000000 -0.000000
0.000000 1.000000 0.000000
0.000000 1.000000 0.000000
0.000000 1.000000 -0.000000
0.000000 1.000000 0.000000
0.000000 0.000000 -1.000000
0.000000 0.000000 -1.000000
0.000000 0.000000 -1.000000
0.000000 0.000000 -1.000000
0.000000 0.000000 -1.000000
0.000000 0.000000 -1.000000
0.000000 0.000000 -1.000000
0.000000 0.000000 -1.000000
0.000000 0.000000 -1.000000
0.000000 0.000000 -1.000000
0.000000 0.000000 -1.000000
0.000000 0.000000 -1.000000
0.000000 0.000000 -1.000000
0.000000 0.000000 -1.000000
0.000000 0.000000 -1.000000
0.000000 0.000000 -1.000000
0.000000 0.000000 -1.000000
0.000000 0.000000 -1.000000
0.000000 0.000000 -1.000000
0.000000 0.000000 -1.000000
0.000000 0.000000 -1.000000
0.000000 0.000000 -1.000000
0.000000 0.000000 -1.000000
0.000000 0.000000 -1.000000
0.000000 0.000000 -1.000000
0.000000 0.000000 -1.000000
0.000000 0.000000 -1.000000
0.000000 0.000000 -1.000000
0.000000 0.000000 -1.000000
0.000000 0.000000 -1.000000
0.000000 0.000000 -1.000000
0.000000 0.000000 -1.000000
0.000000 0.000000 -1.000000
0.000000 0.000000 -1.000000
0.000000 0.000000 -1.000000
0.000000 0.000000 -1.000000
0.000000 -1.000000 0.000000
0.000000 -1.000000 0.000000
0.000000 -1.000000 -0.000000
0.000000 -1.000000 -0.000000
0.000000 -1.000000 0.000000
0.000000 -1.000000 -0.000000
0.000000 -1.000000 0.000000
0.000000 -1.000000 0.000000
0.000000 -1.000000 -0.000000
0.000000 -1.000000 -0.000000
0.000000 -1.000000 0.000000
0.000000 -1.000000 -0.000000
0.000000 -1.000000 -0.000000
0.000000 -1.000000 -0.000000
0.000000 -1.000000 -0.000000
0.000000 -1.000000 -0.000000
0.000000 -1.000000 -0.000000
0.000000 -1.000000 -0.000000
0.000000 -1.000000 -0.000000
0.000000 -1.000000 -0.000000
0.000000 -1.000000 -0.000000
0.000000 -1.000000 -0.000000
0.000000 -1.000000 -0.000000
0.000000 -1.000000 -0.000000
0.000000 -1.000000 -0.000000
0.000000 -1.000000 -0.000000
0.000000 -1.000000 0.000000
0.000000 -1.000000 0.000000
0.000000 -1.000000 -0.000000
0.000000 -1.000000 0.000000
0.000000 -1.000000 -0.000000
0.000000 -1.000000 -0.000000
0.000000 -1.000000 0.000000
0.000000 -1.000000 0.000000
0.000000 -1.000000 -0.000000
0.000000 -1.000000 0.000000
-1.000000 0.000000 0.000000
-1.000000 0.000000 0.000000
-1.000000 0.000000 0.000000
-1.000000 0.000000 0.000000
-1.000000 0.000000 0.000000
-1.000000 0.000000 0.000000
-1.000000 0.000000 0.000000
-1.000000 0.000000 0.000000
-1.000000 0.000000 0.000000
-1.000000 0.000000 0.000000
-1.000000 0.000000 0.000000
-1.000000 0.000000 0.000000
-0.999973 -0.006928 -0.002522
-0.999993 -0.003464 -0.001261
-0.999999 -0.001155 -0.000420
-0.999999 -0.001155 -0.000420
-0.999993 -0.003464 -0.001261
-1.000000 0.000000 0.000000
-1.000000 0.000000 0.000000
-1.000000 0.000000 0.000000
-1.000000 0.000000 0.000000
-1.000000 0.000000 0.000000
-1.000000 0.000000 0.000000
-1.000000 -0.000001 -0.000000
-1.000000 0.000000 0.000000
-0.999999 -0.001155 -0.000420
-1.000000 -0.000001 -0.000000
-1.000000 -0.000001 -0.000000
-0.999999 -0.001155 -0.000420
-1.000000 -0.000001 -0.000000
-1.000000 0.000000 0.000000
-1.000000 -0.000001 -0.000000
-0.999999 -0.001155 -0.000420
-0.999999 -0.001155 -0.000420
-1.000000 -0.000001 -0.000000
-1.000000 -0.000001 -0.000000
-1.000000 0.000000 0.000000
-1.000000 -0.000001 -0.000000
-1.000000 -0.000000 -0.000000
-1.000000 -0.000000 -0.000000
-1.000000 -0.000001 -0.000000
-1.000000 -0.000001 -0.000000
-1.000000 -0.000001 -0.000000
-1.000000 -0.000001 -0.000000
-1.000000 -0.000001 -0.000000
-1.000000 -0.000001 -0.000000
-1.000000 -0.000001 -0.000000
-1.000000 0.000000 0.000000
-1.000000 -0.000001 -0.000000
-1.000000 -0.000001 -0.000000
-1.000000 -0.000001 -0.000000
-1.000000 -0.000001 -0.000000
-1.000000 -0.000001 -0.000000
-1.000000 0.000000 0.000000
0.000000 1.000000 0.000000
0.000000 1.000000 0.000000
0.000000 1.000000 0.000000
0.000000 1.000000 0.000000
0.000000 1.000000 0.000000
0.000000 1.000000 0.000000
-1.000000 0.000000 0.000000
-1.000000 0.000000 0.000000
-1.000000 0.000000 0.000000
-1.000000 0.000000 0.000000
-1.000000 0.000000 0.000000
-1.000000 0.000000 0.000000
0.000000 1.000000 0.000000
0.000000 1.000000 0.000000
0.000000 1.000000 0.000000
0.000000 1.000000 0.000000
0.000000 1.000000 0.000000
0.000000 1.000000 0.000000
0.000000 -1.000000 0.000000
0.000000 -1.000000 0.000000
0.000000 -1.000000 0.000000
0.000000 -1.000000 0.000000
0.000000 -1.000000 0.000000
0.000000 -1.000000 0.000000
-1.000000 0.000000 0.000000
-1.000000 0.000000 0.000000
-1.000000 0.000000 0.000000
-1.000000 0.000000 0.000000
-1.000000 0.000000 0.000000
-1.000000 0.000000 0.000000
0.000000 -1.000000 0.000000
0.000000 -1.000000 0.000000
0.000000 -1.000000 0.000000
0.000000 -1.000000 0.000000
0.000000 -1.000000 0.000000
0.000000 -1.000000 0.000000
0.031579 -0.999501 0.000000
0.031579 -0.999501 0.000000
0.031579 -0.999501 0.000000
0.031579 -0.999501 0.000000
0.031579 -0.999501 0.000000
0.031579 -0.999501 0.000000
-0.433437 0.901184 -0.000000
-0.433438 0.901184 -0.000000
-0.433438 0.901184 -0.000000
-0.433438 0.901184 -0.000000
-0.433438 0.901184 -0.000000
-0.433438 0.901184 -0.000000
-0.282912 0.000000 -0.959146
-0.282912 0.000000 -0.959146
-0.282912 0.000000 -0.959146
-0.282912 0.000000 -0.959146
-0.282912 0.000000 -0.959146
-0.282912 0.000000 -0.959146
0.031337 -0.999509 -0.000218
0.031458 -0.999505 -0.000109
0.031458 -0.999505 -0.000109
0.031458 -0.999505 -0.000109
0.031458 -0.999505 -0.000109
0.031579 -0.999501 -0.000000
-0.282047 -0.001954 0.959399
-0.281221 -0.000977 0.959642
-0.281221 -0.000977 0.959642
-0.281221 -0.000977 0.959642
-0.281221 -0.000977 0.959642
-0.280395 0.000000 0.959885
-0.433437 0.901184 0.000000
-0.433437 0.901184 0.000000
-0.433437 0.901184 0.000000
-0.433437 0.901184 0.000000
-0.433437 0.901184 0.000000
-0.433438 0.901184 0.000000
-0.681337 0.637352 0.359947
0.000000 0.872976 0.487764
-0.469105 0.770154 0.432208
-0.469105 0.770154 0.432208
0.000000 0.872976 0.487764
0.000000 0.872976 0.487764
-0.681337 0.637352 0.359947
-0.469105 0.770154 0.432208
-0.829030 0.486268 0.276141
-0.829030 0.486268 0.276141
-0.469105 0.770154 0.432208
-0.826926 0.488006 0.279361
-1.000000 0.000000 0.000000
-1.000000 -0.000001 0.000000
-1.000000 0.000000 0.000000
-1.000000 0.000000 0.000000
-1.000000 -0.000001 0.000000
-1.000000 0.000000 0.000000
-1.000000 0.000000 -0.000000
-1.000000 0.000000 0.000000
-1.000000 0.000000 0.000000
-1.000000 0.000000 0.000000
-1.000000 0.000000 0.000000
-1.000000 0.000000 0.000000
-1.000000 0.000000 -0.000000
-1.000000 0.000000 -0.000000
-1.000000 0.000000 0.000000
-1.000000 0.000000 0.000000
-1.000000 0.000000 -0.000000
-1.000000 0.000000 0.000000
0.000000 0.000000 -1.000000
0.000000 0.000000 -1.000000
0.000000 0.000000 -1.000000
0.000000 0.000000 -1.000000
0.000000 0.000000 -1.000000
0.000000 0.000000 -1.000000
0.000000 0.000000 -1.000000
0.000000 0.000000 -1.000000
0.000000 0.000000 -1.000000
0.000000 0.000000 -1.000000
0.000000 0.000000 -1.000000
0.000000 0.000000 -1.000000
0.000000 0.867306 0.497776
0.000000 0.867306 0.497776
0.000000 0.867306 0.497776
0.000000 0.867306 0.497776
0.000000 0.867306 0.497776
0.000000 0.867306 0.497776
-0.553476 0.575981 0.601590
-0.681337 0.637352 0.359947
-0.829328 0.484825 0.277779
-0.829328 0.484825 0.277779
-0.681337 0.637352 0.359947
-0.829030 0.486268 0.276141
-1.000000 -0.000001 -0.000000
-1.000000 0.000000 0.000000
-1.000000 0.000000 0.000000
-1.000000 0.000000 0.000000
-1.000000 0.000000 0.000000
-1.000000 0.000000 0.000000
-1.000000 -0.000001 -0.000000
-1.000000 0.000000 0.000000
-1.000000 0.000000 -0.000000
-1.000000 0.000000 -0.000000
-1.000000 0.000000 0.000000
-1.000000 0.000000 0.000000
-1.000000 -0.000000 -0.000000
-1.000000 -0.000001 -0.000000
-1.000000 0.000000 -0.000000
-1.000000 0.000000 -0.000000
-1.000000 -0.000001 -0.000000
-1.000000 0.000000 -0.000000
0.000000 0.000000 -1.000000
0.000000 0.000000 -1.000000
0.000000 0.000000 -1.000000
0.000000 0.000000 -1.000000
0.000000 0.000000 -1.000000
0.000000 0.000000 -1.000000
0.000000 0.000000 -1.000000
0.000000 0.000000 -1.000000
0.000000 0.000000 -1.000000
0.000000 0.000000 -1.000000
0.000000 0.000000 -1.000000
0.000000 0.000000 -1.000000
0.000000 0.156674 -0.987650
0.000000 0.156674 -0.987650
0.000000 0.156674 -0.987650
0.000000 0.156674 -0.987650
0.000000 0.156674 -0.987650
0.000000 0.156674 -0.987650
0.000000 -0.156675 0.987650
0.000000 -0.156676 0.987650
0.000000 -0.156676 0.987650
0.000000 -0.156676 0.987650
0.000000 -0.156676 0.987650
0.000000 -0.156676 0.987650
1.000000 -0.000000 0.000000
1.000000 -0.000000 0.000000
1.000000 -0.000000 0.000000
1.000000 -0.000000 0.000000
1.000000 -0.000000 0.000000
1.000000 0.000000 0.000000
0.000000 0.000000 1.000000
0.000000 0.131925 0.991260
0.000000 0.000000 1.000000
0.000000 0.000000 1.000000
0.000000 0.131925 0.991260
0.138234 0.069196 0.987979
0.000000 0.000000 1.000000
0.138234 0.069196 0.987979
0.000000 0.000000 1.000000
0.000000 0.000000 1.000000
0.138234 0.069196 0.987979
0.000000 0.000001 1.000000
0.000000 0.131925 0.991260
0.671181 0.350117 0.653401
0.138234 0.069196 0.987979
0.138234 0.069196 0.987979
0.671181 0.350117 0.653401
0.359883 0.224042 0.905698
0.138234 0.069196 0.987979
0.359883 0.224042 0.905698
0.000000 0.000001 1.000000
0.000000 0.000001 1.000000
0.359883 0.224042 0.905698
0.000000 0.418561 0.908189
0.829328 0.484824 0.277779
0.553476 0.575981 0.601590
0.671181 0.350117 0.653401
0.671181 0.350117 0.653401
0.553476 0.575981 0.601590
0.359883 0.224042 0.905698
0.359883 0.224042 0.905698
0.553476 0.575981 0.601590
0.000000 0.418561 0.908189
0.000000 0.418561 0.908189
0.553476 0.575981 0.601590
0.000000 0.599358 0.800481
0.000000 0.984404 0.175924
0.105006 0.993125 0.051732
0.385019 0.903206 0.189683
0.385019 0.903206 0.189683
0.105006 0.993125 0.051732
0.380034 0.924972 0.000000
0.380034 0.924972 0.000000
0.105006 0.993125 0.051732
0.000000 1.000000 0.000001
0.000000 1.000000 0.000001
0.105006 0.993125 0.051732
0.000000 1.000000 -0.000000
0.000000 0.984404 0.175924
0.000000 1.000000 -0.000000
0.105006 0.993125 0.051732
0.105006 0.993125 0.051732
0.000000 1.000000 -0.000000
0.000000 1.000000 -0.000000
0.105006 0.993125 0.051732
0.000000 1.000000 -0.000000
0.000000 1.000000 -0.000000
0.000000 1.000000 -0.000000
0.000000 1.000000 -0.000000
0.000000 1.000000 -0.000000
0.000000 1.000000 -0.000000
0.000000 1.000000 0.000000
0.000000 1.000000 -0.000000
0.000000 1.000000 -0.000000
0.000000 1.000000 0.000000
0.000000 1.000000 0.000000
0.000000 1.000000 -0.000000
0.000000 1.000000 0.000000
0.000000 1.000000 -0.000000
0.000000 1.000000 -0.000000
0.000000 1.000000 0.000000
0.000000 1.000000 0.000000
0.000000 0.000000 -1.000000
0.000000 0.000000 -1.000000
0.000000 0.000000 -1.000000
0.000000 0.000000 -1.000000
0.000000 0.000000 -1.000000
0.000000 0.000000 -1.000000
0.000000 0.000000 -1.000000
0.000000 0.000000 -1.000000
0.000000 0.000000 -1.000000
0.000000 0.000000 -1.000000
0.000000 0.000000 -1.000000
0.000000 0.000000 -1.000000
0.000000 0.000000 -1.000000
0.000000 0.000000 -1.000000
0.000000 0.000000 -1.000000
0.000000 0.000000 -1.000000
0.000000 0.000000 -1.000000
0.000000 0.000000 -1.000000
0.000000 0.000000 -1.000000
0.000000 0.000000 -1.000000
0.000000 0.000000 -1.000000
0.000000 0.000000 -1.000000
0.000000 0.000000 -1.000000
0.000000 0.000000 -1.000000
0.000000 0.000000 -1.000000
0.000000 0.000000 -1.000000
0.000000 0.000000 -1.000000
0.000000 0.000000 -1.000000
0.000000 0.000000 -1.000000
0.000000 0.000000 -1.000000
0.000000 0.000000 -1.000000
0.000000 0.000000 -1.000000
0.000000 0.000000 -1.000000
0.000000 0.000000 -1.000000
0.000000 0.000000 -1.000000
0.000000 0.000000 -1.000000
0.000000 -1.000000 0.000000
0.000000 -1.000000 -0.000000
0.000000 -1.000000 0.000000
0.000000 -1.000000 0.000000
0.000000 -1.000000 -0.000000
0.000000 -1.000000 -0.000000
0.000000 -1.000000 0.000000
0.000000 -1.000000 -0.000000
0.000000 -1.000000 0.000000
0.000000 -1.000000 0.000000
0.000000 -1.000000 -0.000000
0.000000 -1.000000 -0.000000
0.000000 -1.000000 -0.000000
0.000000 -1.000000 -0.000000
0.000000 -1.000000 -0.000000
0.000000 -1.000000 -0.000000
0.000000 -1.000000 -0.000000
0.000000 -1.000000 -0.000000
0.000000 -1.000000 -0.000000
0.000000 -1.000000 -0.000000
0.000000 -1.000000 -0.000000
0.000000 -1.000000 -0.000000
0.000000 -1.000000 -0.000000
0.000000 -1.000000 -0.000000
0.000000 -1.000000 -0.000000
0.000000 -1.000000 0.000000
0.000000 -1.000000 -0.000000
0.000000 -1.000000 -0.000000
0.000000 -1.000000 0.000000
0.000000 -1.000000 0.000000
0.000000 -1.000000 -0.000000
0.000000 -1.000000 0.000000
0.000000 -1.000000 -0.000000
0.000000 -1.000000 -0.000000
0.000000 -1.000000 0.000000
0.000000 -1.000000 0.000000
1.000000 0.000000 0.000000
1.000000 0.000000 0.000000
1.000000 0.000000 0.000000
1.000000 0.000000 0.000000
1.000000 0.000000 0.000000
1.000000 0.000000 0.000000
1.000000 0.000000 0.000000
1.000000 0.000000 0.000000
1.000000 0.000000 0.000000
1.000000 0.000000 0.000000
1.000000 0.000000 0.000000
1.000000 0.000000 0.000000
0.999973 -0.006928 -0.002522
0.999999 -0.001155 -0.000420
0.999993 -0.003464 -0.001261
0.999993 -0.003464 -0.001261
0.999999 -0.001155 -0.000420
1.000000 0.000000 0.000000
1.000000 0.000000 0.000000
1.000000 0.000000 0.000000
1.000000 0.000000 0.000000
1.000000 0.000000 0.000000
1.000000 0.000000 0.000000
1.000000 -0.000001 -0.000000
1.000000 0.000000 0.000000
1.000000 -0.000001 -0.000000
0.999999 -0.001155 -0.000420
0.999999 -0.001155 -0.000420
1.000000 -0.000001 -0.000000
1.000000 -0.000001 -0.000000
1.000000 -0.000001 -0.000000
1.000000 -0.000001 -0.000000
0.999999 -0.001155 -0.000420
0.999999 -0.001155 -0.000420
1.000000 -0.000001 -0.000000
1.000000 0.000000 0.000000
1.000000 0.000000 0.000000
1.000000 -0.000000 -0.000000
1.000000 -0.000001 -0.000000
1.000000 -0.000001 -0.000000
1.000000 -0.000000 -0.000000
1.000000 -0.000001 -0.000000
1.000000 -0.000001 -0.000000
1.000000 -0.000001 -0.000000
1.000000 -0.000001 -0.000000
1.000000 -0.000001 -0.000000
1.000000 -0.000001 -0.000000
1.000000 0.000000 0.000000
1.000000 0.000000 0.000000
1.000000 -0.000001 -0.000000
1.000000 -0.000001 -0.000000
1.000000 -0.000001 -0.000000
1.000000 -0.000001 -0.000000
1.000000 -0.000001 -0.000000
0.000000 1.000000 0.000000
0.000000 1.000000 0.000000
0.000000 1.000000 0.000000
0.000000 1.000000 0.000000
0.000000 1.000000 0.000000
0.000000 1.000000 0.000000
1.000000 0.000000 0.000000
1.000000 0.000000 0.000000
1.000000 0.000000 0.000000
1.000000 0.000000 0.000000
1.000000 0.000000 0.000000
1.000000 0.000000 0.000000
0.000000 1.000000 0.000000
0.000000 1.000000 0.000000
0.000000 1.000000 0.000000
0.000000 1.000000 0.000000
0.000000 1.000000 0.000000
0.000000 1.000000 0.000000
0.000000 -1.000000 0.000000
0.000000 -1.000000 0.000000
0.000000 -1.000000 0.000000
0.000000 -1.000000 0.000000
0.000000 -1.000000 0.000000
0.000000 -1.000000 0.000000
1.000000 0.000000 0.000000
1.000000 0.000000 0.000000
1.000000 0.000000 0.000000
1.000000 0.000000 0.000000
1.000000 0.000000 0.000000
1.000000 0.000000 0.000000
0.000000 -1.000000 0.000000
0.000000 -1.000000 0.000000
0.000000 -1.000000 0.000000
0.000000 -1.000000 0.000000
0.000000 -1.000000 0.000000
0.000000 -1.000000 0.000000
-0.031579 -0.999501 0.000000
-0.031579 -0.999501 0.000000
-0.031579 -0.999501 0.000000
-0.031579 -0.999501 0.000000
-0.031579 -0.999501 0.000000
-0.031579 -0.999501 0.000000
0.433438 0.901184 -0.000000
0.433438 0.901184 -0.000000
0.433438 0.901184 -0.000000
0.433438 0.901184 -0.000000
0.433438 0.901184 -0.000000
0.433437 0.901184 -0.000000
0.282912 0.000000 -0.959146
0.282912 0.000000 -0.959146
0.282912 0.000000 -0.959146
0.282912 0.000000 -0.959146
0.282912 0.000000 -0.959146
0.282912 0.000000 -0.959146
-0.031579 -0.999501 -0.000000
-0.031458 -0.999505 -0.000109
-0.031458 -0.999505 -0.000109
-0.031458 -0.999505 -0.000109
-0.031458 -0.999505 -0.000109
-0.031337 -0.999509 -0.000218
0.280395 0.000000 0.959885
0.281221 -0.000977 0.959642
0.281221 -0.000977 0.959642
0.281221 -0.000977 0.959642
0.281221 -0.000977 0.959642
0.282047 -0.001954 0.959399
0.433437 0.901184 0.000000
0.433437 0.901184 0.000000
0.433437 0.901184 0.000000
0.433437 0.901184 0.000000
0.433437 0.901184 0.000000
0.433438 0.901184 0.000000
0.681337 0.637352 0.359947
0.469105 0.770154 0.432208
0.000000 0.872976 0.487764
0.000000 0.872976 0.487764
0.469105 0.770154 0.432208
0.000000 0.872976 0.487764
0.826926 0.488006 0.279361
0.469105 0.770154 0.432208
0.829030 0.486268 0.276141
0.829030 0.486268 0.276141
0.469105 0.770154 0.432208
0.681337 0.637352 0.359947
1.000000 0.000000 0.000000
1.000000 -0.000001 0.000000
1.000000 0.000000 0.000000
1.000000 0.000000 0.000000
1.000000 -0.000001 0.000000
1.000000 0.000000 0.000000
1.000000 0.000000 -0.000000
1.000000 0.000000 0.000000
1.000000 0.000000 0.000000
1.000000 0.000000 0.000000
1.000000 0.000000 0.000000
1.000000 0.000000 0.000000
1.000000 0.000000 -0.000000
1.000000 0.000000 0.000000
1.000000 0.000000 -0.000000
1.000000 0.000000 -0.000000
1.000000 0.000000 0.000000
1.000000 0.000000 0.000000
0.000000 0.000000 -1.000000
0.000000 0.000000 -1.000000
0.000000 0.000000 -1.000000
0.000000 0.000000 -1.000000
0.000000 0.000000 -1.000000
0.000000 0.000000 -1.000000
0.000000 0.000000 -1.000000
0.000000 0.000000 -1.000000
0.000000 0.000000 -1.000000
0.000000 0.000000 -1.000000
0.000000 0.000000 -1.000000
0.000000 0.000000 -1.000000
0.000000 0.867306 0.497776
0.000000 0.867306 0.497776
0.000000 0.867306 0.497776
0.000000 0.867306 0.497776
0.000000 0.867306 0.497776
0.000000 0.867306 0.497776
0.829030 0.486268 0.276141
0.681337 0.637352 0.359947
0.829328 0.484824 0.277779
0.829328 0.484824 0.277779
0.681337 0.637352 0.359947
0.553476 0.575981 0.601590
1.000000 0.000000 0.000000
1.000000 0.000000 0.000000
1.000000 0.000000 0.000000
1.000000 0.000000 0.000000
1.000000 0.000000 0.000000
1.000000 -0.000001 -0.000000
1.000000 -0.000001 -0.000000
1.000000 0.000000 -0.000000
1.000000 0.000000 0.000000
1.000000 0.000000 0.000000
1.000000 0.000000 -0.000000
1.000000 0.000000 0.000000
1.000000 -0.000000 -0.000000
1.000000 0.000000 -0.000000
1.000000 -0.000001 -0.000000
1.000000 -0.000001 -0.000000
1.000000 0.000000 -0.000000
1.000000 0.000000 -0.000000
0.000000 0.000000 -1.000000
0.000000 0.000000 -1.000000
0.000000 0.000000 -1.000000
0.000000 0.000000 -1.000000
0.000000 0.000000 -1.000000
0.000000 0.000000 -1.000000
0.000000 0.000000 -1.000000
0.000000 0.000000 -1.000000
0.000000 0.000000 -1.000000
0.000000 0.000000 -1.000000
0.000000 0.000000 -1.000000
0.000000 0.000000 -1.000000
0.000000 0.156674 -0.987650
0.000000 0.156674 -0.987650
0.000000 0.156674 -0.987650
0.000000 0.156674 -0.987650
0.000000 0.156674 -0.987650
0.000000 0.156674 -0.987650
0.000000 -0.156675 0.987650
0.000000 -0.156676 0.987650
0.000000 -0.156676 0.987650
0.000000 -0.156676 0.987650
0.000000 -0.156676 0.987650
0.000000 -0.156676 0.987650
-1.000000 0.000000 0.000000
-1.000000 -0.000000 0.000000
-1.000000 -0.000000 0.000000
-1.000000 -0.000000 0.000000
-1.000000 -0.000000 0.000000
-1.000000 -0.000000 0.000000
</float_array>
          <technique_common>
            <accessor source="#polySurface1-Normal0-array" count="744" stride="3">
              <param name="X" type="float"/>
              <param name="Y" type="float"/>
              <param name="Z" type="float"/>
            </accessor>
          </technique_common>
        </source>
        <source id="polySurface1-UV0">
          <float_array id="polySurface1-UV0-array" count="394">
0.040518 0.316107
0.058295 0.316107
0.058295 0.369940
0.040518 0.369940
0.144804 0.316107
0.144804 0.369940
0.400207 0.767062
0.481988 0.766237
0.425754 0.747210
0.481748 0.746645
0.401375 0.862400
0.483157 0.861575
0.563530 0.745820
0.563770 0.765412
0.564938 0.860750
0.645311 0.744995
0.696069 0.582173
0.645552 0.764587
0.679606 0.079753
0.680163 0.097746
0.596170 0.081303
0.596728 0.099295
0.682875 0.185300
0.599439 0.186849
0.512750 0.083339
0.513292 0.100845
0.516004 0.188399
0.283550 0.087108
0.284107 0.105101
0.641166 0.582173
0.641166 0.614787
0.696069 0.614787
0.586264 0.582173
0.586264 0.614787
0.571707 0.583248
0.380913 0.583248
0.380913 0.631159
0.571707 0.631159
0.646720 0.859925
0.025161 0.221602
0.045306 0.221602
0.645311 0.744995
0.645552 0.764587
0.058295 0.423774
0.040518 0.423774
0.025161 0.202949
0.646720 0.859925
0.934350 0.742079
0.934590 0.761671
0.045306 0.202949
0.143333 0.221602
0.935758 0.857009
0.143333 0.202949
0.286819 0.192655
0.975046 0.092270
0.974488 0.074277
0.144804 0.423774
0.977758 0.179824
0.660572 0.030085
0.594622 0.031310
0.710625 0.631159
0.641166 0.631159
0.528672 0.032535
0.641166 0.679069
0.058295 0.429548
0.040518 0.434861
0.144804 0.429548
0.710625 0.679069
0.571707 0.679069
0.380913 0.679069
0.025161 0.202949
0.045306 0.202949
0.025161 0.112373
0.058295 0.466534
0.144804 0.466534
0.144804 0.477608
0.641166 0.688936
0.710625 0.688936
0.571707 0.688936
0.045306 0.112373
0.143333 0.202949
0.143333 0.112373
0.058295 0.477608
0.040518 0.461294
0.040518 0.477608
0.058295 0.423823
0.405901 0.688936
0.956112 0.679069
0.956112 0.631159
0.710625 0.583248
0.956112 0.583248
0.571707 0.712460
0.465477 0.712460
0.502249 0.726979
0.571707 0.726979
0.641166 0.712460
0.641166 0.726979
0.710625 0.712460
0.710625 0.726979
0.678613 0.356701
0.678613 0.403168
0.627746 0.403168
0.627746 0.356701
0.576879 0.403168
0.576879 0.356701
0.563393 0.358233
0.563393 0.426494
0.386622 0.426494
0.386622 0.358233
0.692099 0.426494
0.692099 0.494755
0.627746 0.494755
0.627746 0.426494
0.563393 0.494755
0.386622 0.494755
0.692099 0.508812
0.627746 0.508812
0.563393 0.508812
0.409773 0.508812
0.919542 0.426494
0.919542 0.494755
0.692099 0.358233
0.919542 0.358233
0.563393 0.542329
0.563393 0.563016
0.499039 0.563016
0.464971 0.542329
0.627746 0.542329
0.627746 0.563016
0.692099 0.542329
0.692099 0.563016
0.144804 0.423823
0.144804 0.460810
0.058295 0.460810
0.249091 0.316107
0.249091 0.369940
0.231313 0.369940
0.231313 0.316107
0.241360 0.266075
0.241360 0.293525
0.249091 0.423774
0.231313 0.423774
0.261505 0.266075
0.249091 0.434861
0.231313 0.429548
0.261505 0.293525
0.231313 0.466534
0.231313 0.477608
0.144804 0.477608
0.241360 0.021797
0.249091 0.461294
0.249091 0.477608
0.231313 0.423823
0.231313 0.460810
0.261505 0.021797
0.241360 0.112373
0.686144 0.290847
0.602708 0.292396
0.685586 0.272854
0.602151 0.274403
0.519258 0.293458
0.518716 0.275953
0.290088 0.298201
0.289530 0.280209
0.980469 0.267378
0.981027 0.285371
0.670207 0.341164
0.604257 0.342389
0.538307 0.343613
0.484565 0.976506
0.484325 0.956913
0.428571 0.977070
0.402544 0.957738
0.566347 0.975681
0.566107 0.956088
0.648129 0.974855
0.647889 0.955263
0.025161 0.021797
0.648129 0.974855
0.045306 0.021797
0.647889 0.955263
0.937167 0.971940
0.143333 0.021797
0.936927 0.952347
0.025161 0.293525
0.045306 0.293525
0.025161 0.266075
0.045306 0.266075
0.143333 0.293525
0.143333 0.266075
0.261505 0.221602
0.261505 0.202949
0.241360 0.221602
0.241360 0.202949
0.261505 0.202949
0.261505 0.112373
0.241360 0.202949
</float_array>
          <technique_common>
            <accessor source="#polySurface1-UV0-array" count="197" stride="2">
              <param name="S" type="float"/>
              <param name="T" type="float"/>
            </accessor>
          </technique_common>
        </source>
        <source id="polySurface1-UV1">
          <float_array id="polySurface1-UV1-array" count="172">
0.375000 0.000000
0.458333 0.000000
0.458333 0.083333
0.375000 0.083333
0.513517 0.000000
0.513517 0.083333
0.458333 0.166667
0.375000 0.166667
0.513517 0.166667
0.458333 0.183828
0.375000 0.183828
0.513517 0.183828
0.375000 0.250000
0.458333 0.250000
0.458333 0.333333
0.375000 0.333333
0.513517 0.250000
0.513517 0.333333
0.458333 0.416667
0.375000 0.416667
0.513517 0.416667
0.458333 0.500000
0.375000 0.500000
0.513517 0.500000
0.375000 0.566172
0.458333 0.566172
0.458333 0.583333
0.375000 0.583333
0.513517 0.566172
0.513517 0.583333
0.375000 0.583333
0.458333 0.583333
0.458333 0.666667
0.375000 0.666667
0.513517 0.583333
0.513517 0.666667
0.458333 0.750000
0.375000 0.750000
0.513517 0.750000
0.375000 0.750000
0.458333 0.750000
0.458333 0.833333
0.375000 0.833333
0.513517 0.750000
0.513517 0.833333
0.458333 0.916667
0.375000 0.916667
0.513517 0.916667
0.458333 1.000000
0.375000 1.000000
0.513517 1.000000
0.125000 0.000000
0.208333 0.000000
0.208333 0.083333
0.125000 0.083333
0.291667 0.000000
0.291667 0.083333
0.291667 0.000000
0.291667 0.083333
0.125000 0.083333
0.208333 0.083333
0.208333 0.166667
0.125000 0.166667
0.291667 0.166667
0.208333 0.183828
0.125000 0.183828
0.291667 0.183828
0.375000 0.666667
0.125000 0.000000
0.208333 0.000000
0.458333 0.224745
0.513517 0.224745
0.375000 0.224745
0.291667 0.224745
0.291667 0.250000
0.208333 0.224745
0.208333 0.250000
0.125000 0.224745
0.125000 0.250000
0.458333 0.525255
0.375000 0.525255
0.513517 0.525255
0.458333 0.183828
0.513517 0.183828
0.513517 0.224745
0.458333 0.224745
</float_array>
          <technique_common>
            <accessor source="#polySurface1-UV1-array" count="86" stride="2">
              <param name="S" type="float"/>
              <param name="T" type="float"/>
            </accessor>
          </technique_common>
        </source>
        <vertices id="polySurface1-VERTEX">
          <input semantic="POSITION" source="#polySurface1-POSITION"/>
        </vertices>
        <triangles count="248" material="lambert1">
          <input semantic="VERTEX" offset="0" source="#polySurface1-VERTEX"/>
          <input semantic="NORMAL" offset="1" source="#polySurface1-Normal0"/>
          <input semantic="TEXCOORD" offset="2" set="0" source="#polySurface1-UV0"/>
          <input semantic="TEXCOORD" offset="3" set="1" source="#polySurface1-UV1"/>
          <p> 0 0 0 -1 1 1 1 -1 2 2 3 -1 2 3 3 -1 1 4 1 -1 3 5 2 -1 1 6 1 -1 46 7 4 -1 3 8 2 -1 3 9 2 -1 46 10 4 -1 33 11 5 -1 2 12 3 -1 3 13 2 -1 4 14 44 -1 4 15 44 -1 3 16 2 -1 5 17 43 -1 3 18 2 -1 33 19 5 -1 5 20 43 -1 5 21 43 -1 33 22 5 -1 34 23 56 -1 5 24 43 -1 62 25 64 -1 4 26 44 -1 4 27 44 -1 62 28 64 -1 63 29 65 -1 5 30 43 -1 34 31 56 -1 62 32 64 -1 62 33 64 -1 34 34 56 -1 61 35 66 -1 7 36 6 -1 9 37 7 -1 6 38 8 -1 6 39 8 -1 9 40 7 -1 8 41 9 -1 7 42 6 -1 35 43 10 -1 9 44 7 -1 9 45 7 -1 35 46 10 -1 36 47 11 -1 8 48 9 -1 9 49 7 -1 10 50 12 -1 10 51 12 -1 9 52 7 -1 11 53 13 -1 9 54 7 -1 36 55 11 -1 11 56 13 -1 11 57 13 -1 36 58 11 -1 37 59 14 -1 10 60 12 -1 11 61 13 -1 12 62 15 -1 12 63 15 -1 11 64 13 -1 13 65 17 -1 11 66 13 -1 37 67 14 -1 13 68 17 -1 13 69 17 -1 37 70 14 -1 38 71 38 -1 66 72 39 -1 67 73 40 -1 14 74 45 -1 14 75 45 -1 67 76 40 -1 15 77 49 -1 67 78 40 -1 68 79 50 -1 15 80 49 -1 15 81 49 -1 68 82 50 -1 39 83 52 -1 27 84 70 -1 28 85 71 -1 30 86 72 -1 30 87 72 -1 28 88 71 -1 29 89 79 -1 28 90 71 -1 40 91 80 -1 29 92 79 -1 29 93 79 -1 40 94 80 -1 41 95 81 -1 30 96 72 -1 29 97 79 -1 32 98 177 -1 32 99 177 -1 29 100 79 -1 31 101 179 -1 29 102 79 -1 41 103 81 -1 31 104 179 -1 31 105 179 -1 41 106 81 -1 42 107 182 -1 17 108 18 -1 18 109 19 -1 19 110 20 -1 19 111 20 -1 18 112 19 -1 20 113 21 -1 18 114 19 -1 43 115 22 -1 20 116 21 -1 20 117 21 -1 43 118 22 -1 44 119 23 -1 19 120 20 -1 20 121 21 -1 21 122 24 -1 21 123 24 -1 20 124 21 -1 22 125 25 -1 20 126 21 -1 44 127 23 -1 22 128 25 -1 22 129 25 -1 44 130 23 -1 45 131 26 -1 21 132 24 -1 22 133 25 -1 0 134 27 -1 0 135 27 -1 22 136 25 -1 1 137 28 -1 22 138 25 -1 45 139 26 -1 1 140 28 -1 1 141 28 -1 45 142 26 -1 46 143 53 -1 47 144 16 -1 48 145 29 -1 50 146 31 -1 50 147 31 -1 48 148 29 -1 49 149 30 -1 48 150 29 -1 51 151 32 -1 49 152 30 -1 49 153 30 -1 51 154 32 -1 52 155 33 -1 21 156 34 -1 0 157 35 -1 24 158 37 -1 24 159 37 -1 0 160 35 -1 2 161 36 -1 16 162 60 -1 23 163 61 -1 14 164 67 -1 14 165 67 -1 23 166 61 -1 25 167 63 -1 23 168 61 -1 24 169 37 -1 25 170 63 -1 25 171 63 -1 24 172 37 -1 26 173 68 -1 2 174 36 -1 4 175 69 -1 24 176 37 -1 24 177 37 -1 4 178 69 -1 26 179 68 -1 14 180 67 -1 25 181 63 -1 66 182 77 -1 66 183 77 -1 25 184 63 -1 65 185 76 -1 25 186 63 -1 26 187 68 -1 65 188 76 -1 65 189 76 -1 26 190 68 -1 64 191 78 -1 4 192 69 -1 63 193 86 -1 26 194 68 -1 26 195 68 -1 63 196 86 -1 64 197 78 -1 14 198 41 -1 15 199 42 -1 27 200 47 -1 27 201 47 -1 15 202 42 -1 28 203 48 -1 16 204 60 -1 14 205 67 -1 30 206 88 -1 30 207 88 -1 14 208 67 -1 27 209 87 -1 15 210 42 -1 39 211 46 -1 28 212 48 -1 28 213 48 -1 39 214 46 -1 40 215 51 -1 18 216 19 -1 17 217 18 -1 31 218 54 -1 31 219 54 -1 17 220 18 -1 32 221 55 -1 17 222 89 -1 16 223 60 -1 32 224 90 -1 32 225 90 -1 16 226 60 -1 30 227 88 -1 43 228 22 -1 18 229 19 -1 42 230 57 -1 42 231 57 -1 18 232 19 -1 31 233 54 -1 17 234 18 -1 19 235 20 -1 47 236 58 -1 47 237 58 -1 19 238 20 -1 48 239 59 -1 16 240 60 -1 50 241 31 -1 23 242 61 -1 23 243 61 -1 50 244 31 -1 49 245 30 -1 16 246 60 -1 17 247 89 -1 50 248 31 -1 50 249 31 -1 17 250 89 -1 47 251 16 -1 21 252 24 -1 51 253 62 -1 19 254 20 -1 19 255 20 -1 51 256 62 -1 48 257 59 -1 24 258 37 -1 52 259 33 -1 21 260 34 -1 21 261 34 -1 52 262 33 -1 51 263 32 -1 24 264 37 -1 23 265 61 -1 52 266 33 -1 52 267 33 -1 23 268 61 -1 49 269 30 -1 54 270 73 -1 53 271 74 -1 7 272 82 -1 7 273 82 -1 53 274 74 -1 35 275 75 -1 54 276 73 -1 7 277 82 -1 55 278 83 -1 55 279 83 -1 7 280 82 -1 6 281 84 -1 55 282 92 -1 6 283 93 -1 56 284 91 -1 56 285 91 -1 6 286 93 -1 8 287 94 -1 57 288 95 -1 56 289 91 -1 10 290 96 -1 10 291 96 -1 56 292 91 -1 8 293 94 -1 58 294 97 -1 57 295 95 -1 12 296 98 -1 12 297 98 -1 57 298 95 -1 10 299 96 -1 12 300 184 -1 13 301 185 -1 58 302 186 -1 58 303 186 -1 13 304 185 -1 59 305 187 -1 13 306 185 -1 38 307 188 -1 59 308 187 -1 59 309 187 -1 38 310 188 -1 60 311 189 -1 70 312 85 -1 69 313 131 -1 72 314 133 -1 72 315 133 -1 69 316 131 -1 71 317 132 -1 62 318 64 -1 54 319 73 -1 63 320 65 -1 63 321 65 -1 54 322 73 -1 55 323 83 -1 63 324 86 -1 55 325 92 -1 64 326 78 -1 64 327 78 -1 55 328 92 -1 56 329 91 -1 65 330 76 -1 64 331 78 -1 57 332 95 -1 57 333 95 -1 64 334 78 -1 56 335 91 -1 66 336 77 -1 65 337 76 -1 58 338 97 -1 58 339 97 -1 65 340 76 -1 57 341 95 -1 58 342 186 -1 59 343 187 -1 66 344 39 -1 66 345 39 -1 59 346 187 -1 67 347 40 -1 59 348 187 -1 60 349 189 -1 67 350 40 -1 67 351 40 -1 60 352 189 -1 68 353 50 -1 62 354 64 -1 61 355 66 -1 70 356 85 -1 70 357 85 -1 61 358 66 -1 69 359 131 -1 53 360 74 -1 54 361 73 -1 71 362 132 -1 71 363 132 -1 54 364 73 -1 72 365 133 -1 54 366 73 -1 62 367 64 -1 72 368 133 -1 72 369 133 -1 62 370 64 -1 70 371 85 -1 73 372 134 0 75 373 135 3 74 374 137 1 74 375 137 1 75 376 135 3 76 377 136 2 74 378 137 1 76 379 136 2 46 380 4 4 46 381 4 4 76 382 136 2 33 383 5 5 75 384 135 3 77 385 140 7 76 386 136 2 76 387 136 2 77 388 140 7 78 389 141 6 76 390 136 2 78 391 141 6 33 392 5 5 33 393 5 5 78 394 141 6 34 395 56 8 119 396 143 10 118 397 144 9 77 398 140 7 77 399 140 7 118 400 144 9 78 401 141 6 78 402 141 6 118 403 144 9 34 404 56 8 34 405 56 8 118 406 144 9 61 407 66 11 81 408 169 15 82 409 170 14 79 410 171 12 79 411 171 12 82 412 170 14 80 413 172 13 80 414 172 13 82 415 170 14 35 416 10 16 35 417 10 16 82 418 170 14 36 419 11 17 81 420 169 15 83 421 173 19 82 422 170 14 82 423 170 14 83 424 173 19 84 425 174 18 82 426 170 14 84 427 174 18 36 428 11 17 36 429 11 17 84 430 174 18 37 431 14 20 83 432 173 19 85 433 175 22 84 434 174 18 84 435 174 18 85 436 175 22 86 437 176 21 84 438 174 18 86 439 176 21 37 440 14 20 37 441 14 20 86 442 176 21 38 443 38 23 122 444 190 24 87 445 191 27 123 446 192 25 123 447 192 25 87 448 191 27 88 449 193 26 123 450 192 25 88 451 193 26 68 452 50 28 68 453 50 28 88 454 193 26 39 455 52 29 100 456 194 30 103 457 195 33 101 458 196 31 101 459 196 31 103 460 195 33 102 461 155 32 101 462 196 31 102 463 155 32 40 464 80 34 40 465 80 34 102 466 155 32 41 467 81 35 103 468 195 33 105 469 154 37 102 470 155 32 102 471 155 32 105 472 154 37 104 473 149 36 102 474 155 32 104 475 149 36 41 476 81 35 41 477 81 35 104 478 149 36 42 479 182 38 90 480 156 39 92 481 157 42 91 482 158 40 91 483 158 40 92 484 157 42 93 485 159 41 91 486 158 40 93 487 159 41 43 488 22 43 43 489 22 43 93 490 159 41 44 491 23 44 92 492 157 42 94 493 160 46 93 494 159 41 93 495 159 41 94 496 160 46 95 497 161 45 93 498 159 41 95 499 161 45 44 500 23 44 44 501 23 44 95 502 161 45 45 503 26 47 94 504 160 46 73 505 162 49 95 506 161 45 95 507 161 45 73 508 162 49 74 509 163 48 95 510 161 45 74 511 163 48 45 512 26 47 45 513 26 47 74 514 163 48 46 515 53 50 106 516 99 51 109 517 100 54 107 518 102 52 107 519 102 52 109 520 100 54 108 521 101 53 107 522 102 52 108 523 101 53 110 524 104 55 110 525 104 55 108 526 101 53 111 527 103 56 94 528 105 57 97 529 106 58 73 530 108 0 73 531 108 0 97 532 106 58 75 533 107 3 89 534 109 59 87 535 110 62 96 536 112 60 96 537 112 60 87 538 110 62 98 539 111 61 96 540 112 60 98 541 111 61 97 542 106 58 97 543 106 58 98 544 111 61 99 545 113 63 99 546 113 63 77 547 114 7 97 548 106 58 97 549 106 58 77 550 114 7 75 551 107 3 87 552 110 62 122 553 115 65 98 554 111 61 98 555 111 61 122 556 115 65 121 557 116 64 98 558 111 61 121 559 116 64 99 560 113 63 99 561 113 63 121 562 116 64 120 563 117 66 120 564 117 66 119 565 118 10 99 566 113 63 99 567 113 63 119 568 118 10 77 569 114 7 87 570 178 27 100 571 181 30 88 572 180 26 88 573 180 26 100 574 181 30 101 575 183 31 89 576 109 67 103 577 119 33 87 578 110 27 87 579 110 27 103 580 119 33 100 581 120 30 88 582 180 26 101 583 183 31 39 584 46 29 39 585 46 29 101 586 183 31 40 587 51 34 91 588 158 40 104 589 164 36 90 590 156 39 90 591 156 39 104 592 164 36 105 593 165 37 90 594 121 39 105 595 122 37 89 596 109 67 89 597 109 67 105 598 122 37 103 599 119 33 43 600 22 43 42 601 57 38 91 602 158 40 91 603 158 40 42 604 57 38 104 605 164 36 90 606 156 68 106 607 166 51 92 608 157 69 92 609 157 69 106 610 166 51 107 611 167 52 108 612 101 53 109 613 100 54 96 614 112 60 96 615 112 60 109 616 100 54 89 617 109 59 89 618 109 59 109 619 100 54 90 620 121 68 90 621 121 68 109 622 100 54 106 623 99 51 107 624 167 52 110 625 168 55 92 626 157 69 92 627 157 69 110 628 168 55 94 629 160 57 110 630 104 55 111 631 103 56 94 632 105 57 94 633 105 57 111 634 103 56 97 635 106 58 97 636 106 58 111 637 103 56 96 638 112 60 96 639 112 60 111 640 103 56 108 641 101 53 112 642 146 70 80 643 147 13 53 644 74 71 53 645 74 71 80 646 147 13 35 647 148 16 79 648 151 12 80 649 147 13 113 650 150 72 113 651 150 72 80 652 147 13 112 653 146 70 81 654 124 74 79 655 125 12 114 656 123 73 114 657 123 73 79 658 125 12 113 659 126 72 115 660 127 75 83 661 128 76 114 662 123 73 114 663 123 73 83 664 128 76 81 665 124 74 116 666 129 77 85 667 130 78 115 668 127 75 115 669 127 75 85 670 130 78 83 671 128 76 85 672 145 22 116 673 142 80 86 674 139 21 86 675 139 21 116 676 142 80 117 677 138 79 86 678 139 21 117 679 138 79 38 680 188 23 38 681 188 23 117 682 138 79 60 683 189 81 124 684 152 82 125 685 153 85 69 686 131 83 69 687 131 83 125 688 153 85 71 689 132 84 113 690 150 72 112 691 146 70 119 692 143 10 119 693 143 10 112 694 146 70 118 695 144 9 114 696 123 73 113 697 126 72 120 698 117 66 120 699 117 66 113 700 126 72 119 701 118 10 121 702 116 64 115 703 127 75 120 704 117 66 120 705 117 66 115 706 127 75 114 707 123 73 122 708 115 65 116 709 129 77 121 710 116 64 121 711 116 64 116 712 129 77 115 713 127 75 116 714 142 80 122 715 190 24 117 716 138 79 117 717 138 79 122 718 190 24 123 719 192 25 117 720 138 79 123 721 192 25 60 722 189 81 60 723 189 81 123 724 192 25 68 725 50 28 118 726 144 9 124 727 152 82 61 728 66 11 61 729 66 11 124 730 152 82 69 731 131 83 53 732 74 71 71 733 132 84 112 734 146 70 112 735 146 70 71 736 132 84 125 737 153 85 112 738 146 70 125 739 153 85 118 740 144 9 118 741 144 9 125 742 153 85 124 743 152 82</p>
        </triangles>
      </mesh>
    </geometry>
    <geometry id="pCube1-lib" name="pCube1Mesh">
      <mesh>
        <source id="pCube1-POSITION">
          <float_array id="pCube1-POSITION-array" count="96">
-3.500000 -0.999999 -4.500000
3.500000 -0.999999 -4.500000
-3.500000 -1.000000 14.964789
3.500000 -1.000000 14.964789
-3.500000 1.000000 14.964789
3.500000 1.000000 14.964789
-3.500000 1.000000 -4.500000
3.500000 1.000000 -4.500000
-1.847027 1.000000 14.964789
-1.847027 1.000000 -4.500000
-1.847027 -0.999999 -4.500000
-1.847027 -1.000000 14.964789
2.072089 1.000000 14.964789
2.072089 1.000000 -4.500000
2.072089 -0.999999 -4.500000
2.072089 -1.000000 14.964789
-1.069513 1.000001 14.964790
-1.069513 1.000000 -4.500000
-1.069513 -0.999999 -4.500000
-1.069513 -0.999999 14.964790
1.073620 1.000001 14.964790
1.073620 1.000000 -4.500000
1.073620 -0.999999 -4.500000
1.073620 -0.999999 14.964790
-1.847027 -0.999999 23.767059
-1.847027 0.999999 23.767059
-1.069513 -0.999999 23.767059
-1.069513 1.000000 23.767061
1.073620 -0.999998 23.767059
1.073620 1.000003 23.767057
2.072089 -0.999999 23.767059
2.072089 1.000003 23.767057
</float_array>
          <technique_common>
            <accessor source="#pCube1-POSITION-array" count="32" stride="3">
              <param name="X" type="float"/>
              <param name="Y" type="float"/>
              <param name="Z" type="float"/>
            </accessor>
          </technique_common>
        </source>
        <source id="pCube1-Normal0">
          <float_array id="pCube1-Normal0-array" count="540">
0.000000 -1.000000 -0.000000
0.000000 -1.000000 -0.000000
0.000000 -1.000000 -0.000000
0.000000 -1.000000 -0.000000
0.000000 -1.000000 -0.000000
0.000000 -1.000000 -0.000000
0.000000 0.000000 1.000000
0.000000 0.000000 1.000000
0.000000 0.000000 1.000000
0.000000 0.000000 1.000000
0.000000 0.000000 1.000000
0.000000 0.000000 1.000000
-0.000001 1.000000 0.000000
-0.000000 1.000000 -0.000000
0.000000 1.000000 -0.000000
0.000000 1.000000 -0.000000
-0.000000 1.000000 -0.000000
0.000000 1.000000 -0.000000
0.000000 0.000000 -1.000000
0.000000 0.000000 -1.000000
0.000000 0.000000 -1.000000
0.000000 0.000000 -1.000000
0.000000 0.000000 -1.000000
0.000000 0.000000 -1.000000
1.000000 0.000000 0.000000
1.000000 0.000000 0.000000
1.000000 0.000000 0.000000
1.000000 0.000000 0.000000
1.000000 0.000000 0.000000
1.000000 0.000000 0.000000
-1.000000 0.000000 0.000000
-1.000000 0.000000 0.000000
-1.000000 0.000000 0.000000
-1.000000 0.000000 0.000000
-1.000000 0.000000 0.000000
-1.000000 0.000000 0.000000
-0.000001 1.000000 0.000000
-0.000000 1.000000 -0.000000
-0.000001 1.000000 0.000000
-0.000001 1.000000 0.000000
-0.000000 1.000000 -0.000000
-0.000000 1.000000 -0.000000
0.000000 0.000000 -1.000000
0.000000 0.000000 -1.000000
0.000000 0.000000 -1.000000
0.000000 0.000000 -1.000000
0.000000 0.000000 -1.000000
0.000000 0.000000 -1.000000
0.000000 -1.000000 0.000000
0.000000 -1.000000 0.000000
0.000000 -1.000000 -0.000000
0.000000 -1.000000 -0.000000
0.000000 -1.000000 -0.000000
0.000000 -1.000000 0.000000
0.000001 -0.000000 1.000000
0.000001 -0.000000 1.000000
0.000001 -0.000000 1.000000
0.000001 -0.000000 1.000000
0.000001 -0.000000 1.000000
0.000001 -0.000000 1.000000
0.000000 1.000000 -0.000000
0.000000 1.000000 -0.000000
0.000000 1.000000 -0.000000
0.000000 1.000000 -0.000000
0.000000 1.000000 -0.000000
0.000000 1.000000 -0.000000
0.000000 0.000000 -1.000000
0.000000 0.000000 -1.000000
0.000000 0.000000 -1.000000
0.000000 0.000000 -1.000000
0.000000 0.000000 -1.000000
0.000000 0.000000 -1.000000
0.000000 -1.000000 -0.000000
0.000000 -1.000000 -0.000000
-0.000000 -1.000000 0.000000
-0.000000 -1.000000 0.000000
-0.000000 -1.000000 -0.000000
0.000000 -1.000000 -0.000000
0.000000 0.000000 1.000000
0.000000 0.000000 1.000000
0.000000 0.000000 1.000000
0.000000 0.000000 1.000000
0.000000 0.000000 1.000000
0.000000 0.000000 1.000000
0.000000 1.000000 -0.000000
0.000000 1.000000 -0.000000
-0.000001 1.000000 0.000000
-0.000001 1.000000 0.000000
0.000000 1.000000 -0.000000
-0.000000 1.000000 -0.000000
0.000000 0.000000 -1.000000
0.000000 0.000000 -1.000000
0.000000 0.000000 -1.000000
0.000000 0.000000 -1.000000
0.000000 0.000000 -1.000000
0.000000 0.000000 -1.000000
-0.000000 -1.000000 0.000000
-0.000000 -1.000000 0.000000
0.000000 -1.000000 0.000000
0.000000 -1.000000 0.000000
0.000000 -1.000000 0.000000
-0.000000 -1.000000 0.000000
0.000000 0.000000 1.000000
0.000000 0.000000 1.000000
0.000000 0.000000 1.000000
0.000000 0.000000 1.000000
0.000000 0.000000 1.000000
0.000000 0.000000 1.000000
0.000000 1.000000 -0.000000
0.000000 1.000000 -0.000000
0.000000 1.000000 -0.000000
0.000000 1.000000 -0.000000
0.000000 1.000000 -0.000000
0.000000 1.000000 -0.000000
0.000000 0.000000 -1.000000
0.000000 0.000000 -1.000000
0.000000 0.000000 -1.000000
0.000000 0.000000 -1.000000
0.000000 0.000000 -1.000000
0.000000 0.000000 -1.000000
-0.000000 -1.000000 0.000000
-0.000000 -1.000000 0.000000
-0.000000 -1.000000 -0.000000
-0.000000 -1.000000 0.000000
-0.000000 -1.000000 0.000000
-0.000000 -1.000000 0.000000
0.000002 0.000001 1.000000
0.000002 0.000001 1.000000
0.000002 0.000001 1.000000
0.000002 0.000001 1.000000
0.000002 0.000001 1.000000
0.000002 0.000001 1.000000
-1.000000 0.000000 0.000000
-1.000000 0.000000 0.000000
-1.000000 0.000000 0.000000
-1.000000 0.000000 0.000000
-1.000000 0.000000 0.000000
-1.000000 0.000000 0.000000
0.000000 -1.000000 0.000000
0.000000 -1.000000 0.000000
0.000000 -1.000000 0.000000
0.000000 -1.000000 0.000000
0.000000 -1.000000 0.000000
0.000000 -1.000000 -0.000000
1.000000 0.000000 0.000000
1.000000 0.000000 0.000000
1.000000 0.000000 0.000000
1.000000 0.000000 0.000000
1.000000 0.000000 0.000000
1.000000 0.000000 0.000000
-0.000001 1.000000 0.000000
-0.000001 1.000000 0.000000
-0.000001 1.000000 0.000000
-0.000001 1.000000 0.000000
-0.000001 1.000000 0.000000
-0.000001 1.000000 0.000000
-1.000000 0.000000 0.000000
-1.000000 0.000000 0.000000
-1.000000 0.000000 0.000000
-1.000000 0.000000 0.000000
-1.000000 0.000000 0.000000
-1.000000 0.000000 0.000000
-0.000001 -1.000000 0.000000
-0.000000 -1.000000 0.000000
-0.000001 -1.000000 0.000000
-0.000001 -1.000000 0.000000
-0.000000 -1.000000 0.000000
-0.000000 -1.000000 0.000000
1.000000 0.000000 0.000000
1.000000 0.000000 0.000000
1.000000 0.000000 0.000000
1.000000 0.000000 0.000000
1.000000 0.000000 0.000000
1.000000 0.000000 0.000000
0.000000 1.000000 -0.000000
0.000000 1.000000 -0.000000
0.000000 1.000000 -0.000000
0.000000 1.000000 -0.000000
0.000000 1.000000 -0.000000
0.000000 1.000000 -0.000000
</float_array>
          <technique_common>
            <accessor source="#pCube1-Normal0-array" count="180" stride="3">
              <param name="X" type="float"/>
              <param name="Y" type="float"/>
              <param name="Z" type="float"/>
            </accessor>
          </technique_common>
        </source>
        <source id="pCube1-UV0">
          <float_array id="pCube1-UV0-array" count="88">
0.118947 0.723492
0.132421 0.723492
0.101754 0.789327
0.057323 0.749705
0.138760 0.723492
0.138760 0.828325
0.156231 0.723492
0.156231 0.828325
0.138760 0.875734
0.129247 0.866788
0.164370 0.723492
0.193986 0.789306
0.176010 0.723492
0.238246 0.749704
0.167430 0.866802
0.156231 0.875733
0.136998 0.600140
0.142701 0.597428
0.096992 0.660305
0.057323 0.686517
0.149313 0.596712
0.152291 0.603027
0.132421 0.712720
0.118946 0.712720
0.164370 0.886504
0.138760 0.712720
0.132421 0.560479
0.138760 0.566254
0.152025 0.567624
0.156231 0.712720
0.198576 0.660305
0.164370 0.712720
0.156231 0.564051
0.164370 0.560479
0.238246 0.686516
0.176011 0.712720
0.138743 0.886507
0.107024 0.851358
0.090642 0.805203
0.189453 0.851319
0.144482 0.572177
0.205297 0.805081
0.156230 0.886504
0.132405 0.886502
</float_array>
          <technique_common>
            <accessor source="#pCube1-UV0-array" count="44" stride="2">
              <param name="S" type="float"/>
              <param name="T" type="float"/>
            </accessor>
          </technique_common>
        </source>
        <vertices id="pCube1-VERTEX">
          <input semantic="POSITION" source="#pCube1-POSITION"/>
        </vertices>
        <triangles count="60" material="lambert1">
          <input semantic="VERTEX" offset="0" source="#pCube1-VERTEX"/>
          <input semantic="NORMAL" offset="1" source="#pCube1-Normal0"/>
          <input semantic="TEXCOORD" offset="2" set="0" source="#pCube1-UV0"/>
          <p> 2 0 3 0 1 0 11 2 2 11 3 2 0 4 0 10 5 1 8 6 18 4 7 19 2 8 3 8 9 18 2 10 3 11 11 2 8 12 18 9 13 22 4 14 19 4 15 19 9 16 22 6 17 23 10 18 1 0 19 0 6 20 23 10 21 1 6 22 23 9 23 22 3 24 13 7 25 35 5 26 34 7 27 35 3 28 13 1 29 12 4 30 19 6 31 23 2 32 3 2 33 3 6 34 23 0 35 0 16 36 16 17 37 25 8 38 18 8 39 18 17 40 25 9 41 22 17 42 25 18 43 4 10 44 1 10 45 1 9 46 22 17 47 25 18 48 4 19 49 5 11 50 2 11 51 2 10 52 1 18 53 4 26 54 8 27 55 36 25 56 43 25 57 43 24 58 9 26 59 8 5 60 34 7 61 35 12 62 30 12 63 30 7 64 35 13 65 31 1 66 12 14 67 10 7 68 35 14 69 10 13 70 31 7 71 35 1 72 12 3 73 13 15 74 11 15 75 11 14 76 10 1 77 12 5 78 34 12 79 30 3 80 13 12 81 30 15 82 11 3 83 13 20 84 21 21 85 29 16 86 16 16 87 16 21 88 29 17 89 25 22 90 6 18 91 4 21 92 29 18 93 4 17 94 25 21 95 29 22 96 6 23 97 7 19 98 5 19 99 5 18 100 4 22 101 6 20 102 21 16 103 16 23 104 20 16 105 16 19 106 17 23 107 20 12 108 30 21 109 29 20 110 21 21 111 29 12 112 30 13 113 31 13 114 31 14 115 10 22 116 6 22 117 6 21 118 29 13 119 31 15 120 11 22 121 6 14 122 10 22 123 6 15 124 11 23 125 7 31 126 24 28 127 15 30 128 14 28 129 15 31 130 24 29 131 42 25 132 37 11 133 2 24 134 9 11 135 2 25 136 37 8 137 38 24 138 9 19 139 5 26 140 8 19 141 5 24 142 9 11 143 2 26 144 40 16 145 16 27 146 27 16 147 16 26 148 40 19 149 17 27 150 27 16 151 16 25 152 26 25 153 26 16 154 16 8 155 18 29 156 32 23 157 20 28 158 28 23 159 20 29 160 32 20 161 21 28 162 15 23 163 7 30 164 14 30 165 14 23 166 7 15 167 11 30 168 14 15 169 11 31 170 39 31 171 39 15 172 11 12 173 41 31 174 33 20 175 21 29 176 32 20 177 21 31 178 33 12 179 30</p>
        </triangles>
      </mesh>
    </geometry>
  </library_geometries>
  <library_visual_scenes>
    <visual_scene id="" name="">
      <node name="polySurface1" id="polySurface1" sid="polySurface1">
        <matrix sid="matrix">1.000000 0.000000 0.000000 0.000000 0.000000 1.000000 0.000000 0.000000 0.000000 0.000000 1.000000 0.000000 0.000000 0.000000 0.000000 1.000000</matrix>
        <instance_geometry url="#polySurface1-lib">
          <bind_material>
            <technique_common>
              <instance_material symbol="lambert1" target="#lambert1"/>
            </technique_common>
          </bind_material>
        </instance_geometry>
        <extra>
          <technique profile="FCOLLADA">
            <visibility>1.000000</visibility>
          </technique>
        </extra>
      </node>
      <node name="pCube1" id="pCube1" sid="pCube1">
        <matrix sid="matrix">1.000000 0.000000 0.000000 0.000000 0.000000 0.707337 -0.706876 -19.127873 0.000000 0.706876 0.707337 4.500000 0.000000 0.000000 0.000000 1.000000</matrix>
        <instance_geometry url="#pCube1-lib">
          <bind_material>
            <technique_common>
              <instance_material symbol="lambert1" target="#lambert1"/>
            </technique_common>
          </bind_material>
        </instance_geometry>
        <extra>
          <technique profile="FCOLLADA">
            <visibility>1.000000</visibility>
          </technique>
        </extra>
      </node>
      <extra>
        <technique profile="MAX3D">
          <frame_rate>24.000000</frame_rate>
        </technique>
        <technique profile="FCOLLADA">
          <start_time>0.041667</start_time>
          <end_time>2.000000</end_time>
        </technique>
      </extra>
    </visual_scene>
  </library_visual_scenes>
  <scene>
    <instance_visual_scene url="#"></instance_visual_scene>
  </scene>
</COLLADA>

