<?xml version="1.0" encoding="utf-8"?>
<COLLADA xmlns="http://www.collada.org/2005/11/COLLADASchema" version="1.4.1">
  <asset>
    <contributor>
      <author></author>
      <authoring_tool>FBX COLLADA exporter</authoring_tool>
      <comments></comments>
    </contributor>
    <created>2012-04-29T21:40:08Z</created>
    <keywords></keywords>
    <modified>2012-04-29T21:40:08Z</modified>
    <revision></revision>
    <subject></subject>
    <title></title>
    <unit meter="0.025400" name="centimeter"></unit>
    <up_axis>Y_UP</up_axis>
  </asset>
  <library_materials>
    <material id="lambert1" name="lambert1">
      <instance_effect url="#lambert1-fx"/>
    </material>
  </library_materials>
  <library_effects>
    <effect id="lambert1-fx" name="lambert1">
      <profile_COMMON>
        <technique sid="standard">
          <phong>
            <emission>
              <color sid="emission">0.000000  0.000000 0.000000 1.000000</color>
            </emission>
            <ambient>
              <color sid="ambient">0.000000  0.000000 0.000000 1.000000</color>
            </ambient>
            <diffuse>
              <color sid="diffuse">0.400000  0.400000 0.400000 1.000000</color>
            </diffuse>
            <specular>
              <color sid="specular">0.000000  0.000000 0.000000 1.000000</color>
            </specular>
            <shininess>
              <float sid="shininess">1.071773</float>
            </shininess>
            <reflective>
              <color sid="reflective">0.000000  0.000000 0.000000 1.000000</color>
            </reflective>
            <reflectivity>
              <float sid="reflectivity">1.000000</float>
            </reflectivity>
            <transparent opaque="RGB_ZERO">
              <color sid="transparent">1.000000  1.000000 1.000000 1.000000</color>
            </transparent>
            <transparency>
              <float sid="transparency">0.000000</float>
            </transparency>
          </phong>
        </technique>
      </profile_COMMON>
    </effect>
  </library_effects>
  <library_geometries>
    <geometry id="pCube1-lib" name="pCube1Mesh">
      <mesh>
        <source id="pCube1-POSITION">
          <float_array id="pCube1-POSITION-array" count="24">
-1.000000 -1.000000 1.000000
1.000000 -1.000000 1.000000
-1.000000 1.000000 1.000000
1.000000 1.000000 1.000000
-1.000000 1.000000 -1.000000
1.000000 1.000000 -1.000000
-1.000000 -1.000000 -1.000000
1.000000 -1.000000 -1.000000
</float_array>
          <technique_common>
            <accessor source="#pCube1-POSITION-array" count="8" stride="3">
              <param name="X" type="float"/>
              <param name="Y" type="float"/>
              <param name="Z" type="float"/>
            </accessor>
          </technique_common>
        </source>
        <source id="pCube1-Normal0">
          <float_array id="pCube1-Normal0-array" count="108">
0.000000 0.000000 1.000000
0.000000 0.000000 1.000000
0.000000 0.000000 1.000000
0.000000 0.000000 1.000000
0.000000 0.000000 1.000000
0.000000 0.000000 1.000000
0.000000 1.000000 0.000000
0.000000 1.000000 0.000000
0.000000 1.000000 0.000000
0.000000 1.000000 0.000000
0.000000 1.000000 0.000000
0.000000 1.000000 0.000000
0.000000 0.000000 -1.000000
0.000000 0.000000 -1.000000
0.000000 0.000000 -1.000000
0.000000 0.000000 -1.000000
0.000000 0.000000 -1.000000
0.000000 0.000000 -1.000000
0.000000 -1.000000 0.000000
0.000000 -1.000000 0.000000
0.000000 -1.000000 0.000000
0.000000 -1.000000 0.000000
0.000000 -1.000000 0.000000
0.000000 -1.000000 0.000000
1.000000 0.000000 0.000000
1.000000 0.000000 0.000000
1.000000 0.000000 0.000000
1.000000 0.000000 0.000000
1.000000 0.000000 0.000000
1.000000 0.000000 0.000000
-1.000000 0.000000 0.000000
-1.000000 0.000000 0.000000
-1.000000 0.000000 0.000000
-1.000000 0.000000 0.000000
-1.000000 0.000000 0.000000
-1.000000 0.000000 0.000000
</float_array>
          <technique_common>
            <accessor source="#pCube1-Normal0-array" count="36" stride="3">
              <param name="X" type="float"/>
              <param name="Y" type="float"/>
              <param name="Z" type="float"/>
            </accessor>
          </technique_common>
        </source>
        <source id="pCube1-UV0">
          <float_array id="pCube1-UV0-array" count="28">
0.375000 0.000000
0.625000 0.000000
0.375000 0.250000
0.625000 0.250000
0.375000 0.500000
0.625000 0.500000
0.375000 0.750000
0.625000 0.750000
0.375000 1.000000
0.625000 1.000000
0.875000 0.000000
0.875000 0.250000
0.125000 0.000000
0.125000 0.250000
</float_array>
          <technique_common>
            <accessor source="#pCube1-UV0-array" count="14" stride="2">
              <param name="S" type="float"/>
              <param name="T" type="float"/>
            </accessor>
          </technique_common>
        </source>
        <vertices id="pCube1-VERTEX">
          <input semantic="POSITION" source="#pCube1-POSITION"/>
        </vertices>
        <triangles count="12" material="lambert1">
          <input semantic="VERTEX" offset="0" source="#pCube1-VERTEX"/>
          <input semantic="NORMAL" offset="1" source="#pCube1-Normal0"/>
          <input semantic="TEXCOORD" offset="2" set="0" source="#pCube1-UV0"/>
          <p> 3 0 3 2 1 2 0 2 0 3 3 3 0 4 0 1 5 1 3 6 3 5 7 5 2 8 2 2 9 2 5 10 5 4 11 4 7 12 7 6 13 6 4 14 4 7 15 7 4 16 4 5 17 5 1 18 9 0 19 8 6 20 6 1 21 9 6 22 6 7 23 7 3 24 3 1 25 1 5 26 11 1 27 1 7 28 10 5 29 11 2 30 2 6 31 12 0 32 0 6 33 12 2 34 2 4 35 13</p>
        </triangles>
      </mesh>
    </geometry>
  </library_geometries>
  <library_animations>
    <animation id="pCube1-anim" name="pCube1">
      <animation>
        <source id="pCube1-Matrix-animation-input">
          <float_array id="pCube1-Matrix-animation-input-array" count="1">

0.033333</float_array>
          <technique_common>
            <accessor source="#pCube1-Matrix-animation-input-array" count="1">
              <param name="TIME" type="float"/>
            </accessor>
          </technique_common>
        </source>
        <source id="pCube1-Matrix-animation-output-transform">
          <float_array id="pCube1-Matrix-animation-output-transform-array" count="16">

0.393701 0.000000 0.000000 0.000000 0.000000 0.393701 -0.000000 0.393701 0.000000 0.000000 0.393701 -0.000000 0.000000 0.000000 0.000000 1.000000</float_array>
          <technique_common>
            <accessor source="#pCube1-Matrix-animation-output-transform-array" count="1" stride="16">
              <param type="float4x4"/>
            </accessor>
          </technique_common>
        </source>
        <source id="pCube1-Interpolations">
          <Name_array id="pCube1-Interpolations-array" count="1">
 LINEAR</Name_array>
          <technique_common>
            <accessor source="#pCube1-Interpolations-array" count="1">
              <param type="name"/>
            </accessor>
          </technique_common>
        </source>
        <sampler id="pCube1-Matrix-animation-transform">
          <input semantic="INPUT" source="#pCube1-Matrix-animation-input"/>
          <input semantic="OUTPUT" source="#pCube1-Matrix-animation-output-transform"/>
          <input semantic="INTERPOLATION" source="#pCube1-Interpolations"/>
        </sampler>
        <channel source="#pCube1-Matrix-animation-transform" target="pCube1/matrix"/>
      </animation>
    </animation>
  </library_animations>
  <library_visual_scenes>
    <visual_scene id="" name="">
      <node name="pCube1" id="pCube1" sid="pCube1">
        <matrix sid="matrix">0.393701 0.000000 0.000000 0.000000 0.000000 0.393701 -0.000000 0.393701 0.000000 0.000000 0.393701 -0.000000 0.000000 0.000000 0.000000 1.000000</matrix>
        <instance_geometry url="#pCube1-lib">
          <bind_material>
            <technique_common>
              <instance_material symbol="lambert1" target="#lambert1"/>
            </technique_common>
          </bind_material>
        </instance_geometry>
        <extra>
          <technique profile="FCOLLADA">
            <visibility>1.000000</visibility>
          </technique>
        </extra>
      </node>
      <extra>
        <technique profile="MAX3D">
          <frame_rate>30.000000</frame_rate>
        </technique>
        <technique profile="FCOLLADA">
          <start_time>0.000000</start_time>
          <end_time>3.333333</end_time>
        </technique>
      </extra>
    </visual_scene>
  </library_visual_scenes>
  <scene>
    <instance_visual_scene url="#"></instance_visual_scene>
  </scene>
</COLLADA>

